                          .,aad88888888888baa,.
                     ,ad8888888888888888888888888ba,.
                 ,ad888888888888888888888888888888888ba,
              ,ad888888888P""'            """Y88888888888ba.
            ,d88888888P""                       ""Y888888888ba
          a888888888"                               ""Y88888888b,
        ,888888888b,                                   ""Y8888888b,
       d888888888888b,                                    "Y8888888b,
     ,8888888' "888888b,                                    "Y8888888b
    ,888888"     "Y88888b,                                    "Y888888b
   ,888888'        "Y88888b,                                    "888888b
  ,888888'     a,  8a"Y88888b,                                   `888888a
 ,888888'      `8, `8) "Y88888b,                  ,adPPRg,        `888888,
 888888'        8)  ]8   "Y88888b,            ,ad888888888b        Y88888b
d88888P        ,8' ,8'     "Y88888b,      ,gPPR888888888888        `888888,
888888'       ,8' ,8'        "Y88888b,,ad8""   `Y888888888P         )88888)
888888        8)  8)           "Y888888"        (8888888""          (88888)
888888        8,  8,          ,ad8Y88888b,      d888""              d88888)
888888        `8, `8,     ,ad8""   "Y88888b,,ad8""                  888888)
888888         `8, `" ,ad8""         "Y88888b"                     ,888888'
Y88888,           ,gPPR8b           ,ad8Y88888b,                   d888888
`88888b          dP:::::Yb      ,ad8""   "Y88888b,                ,888888P
 888888,         8):::::(8  ,ad8""         "Y88888b,              d888888'
 `888888,        Yb:;;;:d888""               "Y88888b,           d888888P
  Y888888,        "8ggg8P"                     "Y88888b,       ,d888888P
   Y88888b,                                      "Y88888b,    ,8888888"
    Y88888b,                                       "Y88888b, d8888888"
     Y888888,                                        "Y888888888888P'
      "888888b,                                        "8888888888"
        Y888888b,                                     ,888888888"
          Y8888888ba,                              ,a888888888"
            "Y88888888ba,._                   .,ad888888888P"
               "Y88888888888bbaa,,_____,,aadd88888888888""
                   "Y8888888888888888888888888888888""  
                       ""Y888888888888888888888P""     
                              """"""""""""""           _
           (')-=-(')
         __(   "   )__
        / _/'-----'\_ \
     ___\\ \\     // //___
     >____)/_\---/_\(____<
  _________                                                 .__._.
 /   _____/__ ________   ___________    _____   ____   ____ |__| |
 \_____  \|  |  \____ \_/ __ \_  __ \  /     \ /  _ \ /  _ \|  | |
 /        \  |  /  |_> >  ___/|  | \/ |  Y Y  (  <_> |  <_> )  |\|
/_______  /____/|   __/ \___  >__|    |__|_|  /\____/ \____/|__|__
        \/      |__|        \/              \/                  \/


                                                           ___   
                                                        .'/   \  
                        __.....__                      / /     \ 
  .--./)            .-''         '.                    | |     | 
 /.''\\   .-,.--.  /     .-''"'-.  `.               .| | |     | 
| |  | |  |  .-. |/     /________\   \    __      .' |_|/`.   .' 
 \`-' /   | |  | ||                  | .:--.'.  .'     |`.|   |  
 /("'`    | |  | |\    .-------------'/ |   \ |'--.  .-' ||___|  
 \ '---.  | |  '-  \    '-.____...---.`" __ | |   |  |   |/___/  
  /'""'.\ | |       `.             .'  .'.''| |   |  |   .'.--.  
 ||     ||| |         `''-...... -'   / /   | |_  |  '.'| |    | 
 \'. __// |_|                         \ \._,\ '/  |   / \_\    / 
  `'---'                               `--'  `"   `'-'   `''--'  

